@startuml

[dial *123] as dial1
[Welcome Menu \n1. Register\n2.More Information\n0. Cancel] as display1
[Thank you for Registering \n1.More Information\n0. Cancel] as display2
[More Information here\n0. Cancel] as display3

start -[#blue,thickness=4]-> dial1
dial1 -[#blue,thickness=4]-> display1
display1 -> display2 :1
display1 -[#blue,thickness=4]-> display3 : 2
display2 -> display3 :1

display1 -up-> End : 0
display3 -> End : 0
display2 -> End : 0


@enduml
