@startuml
hide empty description

state System_Flow  #pink {
    [*] --> DetermineCurrentUserStep
    [*] -> logRequest #lightblue
    state newSessionState <<choice>>
    note right: is new session
    state validResponse <<choice>> : valid Response
    note bottom of validResponse
        has the client responded with a valid value
    end note


    DetermineCurrentUserStep --> newSessionState

    newSessionState --> validResponse : not new session
    state fork <<fork>>
    validResponse --> fork : invalid response
    validResponse --> LookUpUserJourney : valid response
    fork --> GetCurrentJourney
    GetCurrentJourney --> GenerateUserMenu
    fork --> SaveUserResponses
    newSessionState --> LookUpFirstJourneyStep : new session


    LookUpFirstJourneyStep --> GetNextJourneyActivity
    state IsDefaultActivity <<Choice>>
    note right: Is default activity
    GetNextJourneyActivity --> IsDefaultActivity
    state CreateNewCurrentUserStep
    IsDefaultActivity --> CreateNewCurrentUserStep : YES
    IsDefaultActivity --> GetActivity : NO
    state DoesActivityGenerateMenu <<choice>>
    note right: Activity generates custom User Journey
    GetActivity --> DoesActivityGenerateMenu
    DoesActivityGenerateMenu --> CreateNewCurrentUserStep : NO
    DoesActivityGenerateMenu --> GetActivityJourneySteps : YES
    GetActivityJourneySteps --> CreateNewCurrentUserStep
    GetActivityJourneySteps -> SaveSteps #lightblue
    CreateNewCurrentUserStep -> WriteUserStep #lightblue
    CreateNewCurrentUserStep --> GenerateUserMenu


    LookUpUserJourney --> GetNextJourneyActivity
    LookUpUserJourney -left> SaveUserResponses #lightblue

    GenerateUserMenu -> LogResponse #lightblue
    GenerateUserMenu --> [*]
}

state Legend #lightgreen{
    state "Write to Storage" #lightblue
    state "System Process"
}


note left of System_Flow #lightblue
input
    public class **InboundRequest** {
      private String sessionId;
      private int messageType =-1;
      private String MSISDN;
      private String serviceCode;
      private String ussdString;
      private String cellId;
      private String language;
      private String imsi;
}
end note

note left of System_Flow #lightblue
Response Objects
    public class **InboundResponse** {
      private String statusCode;
      private String statusMessage;
      private String transactionId;
      private InboundResponseData data;
      private Links link;
    }
    public class **InboundResponseData** {
      private String inboundResponse;
      private Boolean userInputRequired;
    }
end note
@enduml




