@startsalt
{^
'    {^Journey Steps
'        {/ <b>Journey steps | Journey | Activities | Message Resources}
'        {SI
'        [Journey Step 1.]
'        Journey Step 2.
'        Journey Step 3.
'        Journey Step 4.
'        Journey Step 5.
'        Journey Step 6.
'        .
'        "                                         "
'
'        }
'        [Refresh] | [sdfd]
'
'        {^"Journey Step Details"
'            {
'            Message         | ^Welcome to Ayo     ^
'            Activity        | ^Default            ^
'            Activation Code |  ^*123               ^
'            }
'            .| [Update]
'        }
'    }
'    ---
'    {^Journey
'            {/ Journey steps | <b>Journey | Activities | Message Resources}
'            Journey Steps Available
'            {SI
'            [Journey Step 1.]
'            Journey Step 2.
'            Journey Step 3.
'            Journey Step 4.
'            Journey Step 5.
'            Journey Step 6.
'            .
'            "                                         "
'
'            }
'            [Refresh]
'
'            {^"Journey Details"
'
'                . | {+
'                Flow diagram  here that can be
'                Manipulated by dragging a new journey
'                step here and can add routing arrows
'
'.
'                }
'                is Active | [X] .
'                Version   | ".  1"
'                [Cancel]  | [Update] | [clone]
'            }
'        }
'        ---
'    {^Activities
'        {/ Journey steps | Journey | <b>Activities | Message Resources}
'        {SI
'        [Default Activity] <-- not updateable
'        Journey Step 2.
'        Journey Step 3.
'        Journey Step 4.
'        Journey Step 5.
'        Journey Step 6.
'        .
'        "                                         "
'
'        }
'        [Refresh]
'
'        {^"Journey Step Details"
'            {
'            Bean                     | ^Default            ^
'            Description              | {+ Detail about the activity | . . . . . .}
'            Generates Custom Journey |  ^No                 ^
'            }
'        }
'    }
    {^Message Resources
        {/ Journey steps | Journey | Activities | <b>Message Resources}
        {SI
        [Welcome to aYo]
        Another Message 1
        Another Message 2
        ...
        "                                         "

        }
        [Refresh]

        {^"Resource Details"
            {#
            <b>Locale   | <b>Message
            en          | "Welcome to aYo                   "
            fr          | "Bienvenue à                      "
            }
             [Cancel]  | [Update]
        }
    }
}

@endsalt
